{
  "name": "nexRapportino",
  "integrations": {
    "cordova": {}
  },
  "type": "ionic-angular",
  "app_id": "",
  "proxies": [
    {
      "path":"/api",
      "proxyUrl": "https://nexrapportino.nexapp.it/apiTest"
    }
  ]
}
